MetaPR2 - Pseudohaptolina birgeri
…
# A tibble: 46 x 5
# Groups:   species, dataset_id, sample_label [20]
   species             dataset_id sample_label                    date         n
   <chr>                    <int> <chr>                           <chr>    <int>
 1 Pseudohaptolina_ar~          3 OSD_2014_V4_LW-146-water        2014-06~    93
 2 Pseudohaptolina_ar~         38 White_Sea_2013_2015-2-ice       2014-03~    26
 3 Pseudohaptolina_ar~         38 White_Sea_2013_2015-4-ice       2014-03~   222
 4 Pseudohaptolina_ar~         38 White_Sea_2013_2015-4-water     2014-03~    28
 5 Pseudohaptolina_ar~         39 <NA>                            1900-12~  2880
 6 Pseudohaptolina_bi~          6 Arctic_Stecher_2016-277-ice     2012-08~    16
 7 Pseudohaptolina_bi~         19 Baltic_Sea_2012_2013-A-first y~ 2013-01~    48
 8 Pseudohaptolina_bi~         19 Baltic_Sea_2012_2013-A-first y~ 2013-01~   122
 9 Pseudohaptolina_bi~         19 Baltic_Sea_2012_2013-A-first y~ 2013-01~   151
10 Pseudohaptolina_bi~         19 Baltic_Sea_2012_2013-A-first y~ 2013-02~   107
# ... with 36 more rows
…
